{
  "browserSync": {
    "__COMMENT__": "@link https://www.npmjs.com/package/browser-sync",
    "server": {
      "baseDir": "./dist/"
    }
  },
  "concat": {
    "newline": ";"
  },
  "dir": {
    "dest": "./dist/",
    "node": "./node_modules/",
    "src": "./src/",
    "templates": {
      "src": "./src/app/**/*.html",
      "dest": "./dist/html/"
    },
    "vendor": "./dist/vendor/"
  },
  "ngAnnotate": {
    "add": true,
    "single_quotes": true
  },
  "phantom": {
    "__COMMENT__": "@link https://www.npmjs.com/package/phantomjs"
  },
  "sass": {
    "__COMMENT__1": "@link https://www.npmjs.com/package/gulp-sass",
    "__COMMENT__2": "@link https://github.com/sass/node-sass",
    "includePaths": [],
    "outputStyle": "compressed"
  },
  "serve": {
    "hostname": "localhost",
    "port": 80,
    "root": "./dist/"
  },
  "uglify": {
    "mangle": true,
    "preserveComments": "license"
  }
}
